-- Merging decision tree log ---
manifest
ADDED from C:\Users\Roby\Desktop\masinuta\Mobile Application\app\src\main\AndroidManifest.xml:2:1-21:12
INJECTED from C:\Users\Roby\Desktop\masinuta\Mobile Application\app\src\main\AndroidManifest.xml:2:1-21:12
INJECTED from C:\Users\Roby\Desktop\masinuta\Mobile Application\app\src\main\AndroidManifest.xml:2:1-21:12
INJECTED from C:\Users\Roby\Desktop\masinuta\Mobile Application\app\src\main\AndroidManifest.xml:2:1-21:12
MERGED from [com.android.support:appcompat-v7:26.1.0] C:\Users\Roby\.gradle\caches\transforms-1\files-1.1\appcompat-v7-26.1.0.aar\2c26a190609832e854cf9a066711d61d\AndroidManifest.xml:17:1-31:12
MERGED from [com.android.support.constraint:constraint-layout:1.0.2] C:\Users\Roby\.gradle\caches\transforms-1\files-1.1\constraint-layout-1.0.2.aar\f11daf9add00108189dc3e6473f5cce9\AndroidManifest.xml:2:1-11:12
MERGED from [com.android.support:animated-vector-drawable:26.1.0] C:\Users\Roby\.gradle\caches\transforms-1\files-1.1\animated-vector-drawable-26.1.0.aar\eb5ad295e48e9d63c7dcafba749b973b\AndroidManifest.xml:17:1-28:12
MERGED from [com.android.support:support-vector-drawable:26.1.0] C:\Users\Roby\.gradle\caches\transforms-1\files-1.1\support-vector-drawable-26.1.0.aar\0e6acc08ff05861e97abed967676be58\AndroidManifest.xml:17:1-28:12
MERGED from [com.android.support:support-v4:26.1.0] C:\Users\Roby\.gradle\caches\transforms-1\files-1.1\support-v4-26.1.0.aar\b17f8011e97a900f63dd8cfbd10e70a2\AndroidManifest.xml:17:1-31:12
MERGED from [com.android.support:support-media-compat:26.1.0] C:\Users\Roby\.gradle\caches\transforms-1\files-1.1\support-media-compat-26.1.0.aar\027a65185f1e006a0c015640615e06eb\AndroidManifest.xml:17:1-31:12
MERGED from [com.android.support:support-fragment:26.1.0] C:\Users\Roby\.gradle\caches\transforms-1\files-1.1\support-fragment-26.1.0.aar\df432d39b71a59ae1c3c3f10bde88417\AndroidManifest.xml:17:1-31:12
MERGED from [com.android.support:support-core-utils:26.1.0] C:\Users\Roby\.gradle\caches\transforms-1\files-1.1\support-core-utils-26.1.0.aar\f6e04846a9ec1945d113b11b03f09e12\AndroidManifest.xml:17:1-31:12
MERGED from [com.android.support:support-core-ui:26.1.0] C:\Users\Roby\.gradle\caches\transforms-1\files-1.1\support-core-ui-26.1.0.aar\c6dbd1233474cae772a2456a1b615833\AndroidManifest.xml:17:1-31:12
MERGED from [com.android.support:support-compat:26.1.0] C:\Users\Roby\.gradle\caches\transforms-1\files-1.1\support-compat-26.1.0.aar\19f6df460276246ab5c30fffb86816e4\AndroidManifest.xml:17:1-31:12
MERGED from [android.arch.lifecycle:runtime:1.0.0] C:\Users\Roby\.gradle\caches\transforms-1\files-1.1\runtime-1.0.0.aar\4e72eb475b907a9445bf3e167b757815\AndroidManifest.xml:17:1-30:12
INJECTED from C:\Users\Roby\Desktop\masinuta\Mobile Application\app\src\main\AndroidManifest.xml:2:1-21:12
INJECTED from C:\Users\Roby\Desktop\masinuta\Mobile Application\app\src\main\AndroidManifest.xml:2:1-21:12
INJECTED from C:\Users\Roby\Desktop\masinuta\Mobile Application\app\src\main\AndroidManifest.xml:2:1-21:12
	package
		ADDED from C:\Users\Roby\Desktop\masinuta\Mobile Application\app\src\main\AndroidManifest.xml:3:5-49
		INJECTED from C:\Users\Roby\Desktop\masinuta\Mobile Application\app\src\main\AndroidManifest.xml
		INJECTED from C:\Users\Roby\Desktop\masinuta\Mobile Application\app\src\main\AndroidManifest.xml
	android:versionName
		INJECTED from C:\Users\Roby\Desktop\masinuta\Mobile Application\app\src\main\AndroidManifest.xml
		ADDED from C:\Users\Roby\Desktop\masinuta\Mobile Application\app\src\main\AndroidManifest.xml:2:1-21:12
		INJECTED from C:\Users\Roby\Desktop\masinuta\Mobile Application\app\src\main\AndroidManifest.xml
	android:versionCode
		INJECTED from C:\Users\Roby\Desktop\masinuta\Mobile Application\app\src\main\AndroidManifest.xml
		ADDED from C:\Users\Roby\Desktop\masinuta\Mobile Application\app\src\main\AndroidManifest.xml:2:1-21:12
		INJECTED from C:\Users\Roby\Desktop\masinuta\Mobile Application\app\src\main\AndroidManifest.xml
	xmlns:android
		ADDED from C:\Users\Roby\Desktop\masinuta\Mobile Application\app\src\main\AndroidManifest.xml:2:11-69
application
ADDED from C:\Users\Roby\Desktop\masinuta\Mobile Application\app\src\main\AndroidManifest.xml:5:5-19:19
MERGED from [com.android.support:appcompat-v7:26.1.0] C:\Users\Roby\.gradle\caches\transforms-1\files-1.1\appcompat-v7-26.1.0.aar\2c26a190609832e854cf9a066711d61d\AndroidManifest.xml:25:5-29:19
MERGED from [com.android.support:appcompat-v7:26.1.0] C:\Users\Roby\.gradle\caches\transforms-1\files-1.1\appcompat-v7-26.1.0.aar\2c26a190609832e854cf9a066711d61d\AndroidManifest.xml:25:5-29:19
MERGED from [com.android.support.constraint:constraint-layout:1.0.2] C:\Users\Roby\.gradle\caches\transforms-1\files-1.1\constraint-layout-1.0.2.aar\f11daf9add00108189dc3e6473f5cce9\AndroidManifest.xml:9:5-20
MERGED from [com.android.support.constraint:constraint-layout:1.0.2] C:\Users\Roby\.gradle\caches\transforms-1\files-1.1\constraint-layout-1.0.2.aar\f11daf9add00108189dc3e6473f5cce9\AndroidManifest.xml:9:5-20
MERGED from [com.android.support:animated-vector-drawable:26.1.0] C:\Users\Roby\.gradle\caches\transforms-1\files-1.1\animated-vector-drawable-26.1.0.aar\eb5ad295e48e9d63c7dcafba749b973b\AndroidManifest.xml:22:5-26:19
MERGED from [com.android.support:animated-vector-drawable:26.1.0] C:\Users\Roby\.gradle\caches\transforms-1\files-1.1\animated-vector-drawable-26.1.0.aar\eb5ad295e48e9d63c7dcafba749b973b\AndroidManifest.xml:22:5-26:19
MERGED from [com.android.support:support-vector-drawable:26.1.0] C:\Users\Roby\.gradle\caches\transforms-1\files-1.1\support-vector-drawable-26.1.0.aar\0e6acc08ff05861e97abed967676be58\AndroidManifest.xml:22:5-26:19
MERGED from [com.android.support:support-vector-drawable:26.1.0] C:\Users\Roby\.gradle\caches\transforms-1\files-1.1\support-vector-drawable-26.1.0.aar\0e6acc08ff05861e97abed967676be58\AndroidManifest.xml:22:5-26:19
MERGED from [com.android.support:support-v4:26.1.0] C:\Users\Roby\.gradle\caches\transforms-1\files-1.1\support-v4-26.1.0.aar\b17f8011e97a900f63dd8cfbd10e70a2\AndroidManifest.xml:25:5-29:19
MERGED from [com.android.support:support-v4:26.1.0] C:\Users\Roby\.gradle\caches\transforms-1\files-1.1\support-v4-26.1.0.aar\b17f8011e97a900f63dd8cfbd10e70a2\AndroidManifest.xml:25:5-29:19
MERGED from [com.android.support:support-media-compat:26.1.0] C:\Users\Roby\.gradle\caches\transforms-1\files-1.1\support-media-compat-26.1.0.aar\027a65185f1e006a0c015640615e06eb\AndroidManifest.xml:25:5-29:19
MERGED from [com.android.support:support-media-compat:26.1.0] C:\Users\Roby\.gradle\caches\transforms-1\files-1.1\support-media-compat-26.1.0.aar\027a65185f1e006a0c015640615e06eb\AndroidManifest.xml:25:5-29:19
MERGED from [com.android.support:support-fragment:26.1.0] C:\Users\Roby\.gradle\caches\transforms-1\files-1.1\support-fragment-26.1.0.aar\df432d39b71a59ae1c3c3f10bde88417\AndroidManifest.xml:25:5-29:19
MERGED from [com.android.support:support-fragment:26.1.0] C:\Users\Roby\.gradle\caches\transforms-1\files-1.1\support-fragment-26.1.0.aar\df432d39b71a59ae1c3c3f10bde88417\AndroidManifest.xml:25:5-29:19
MERGED from [com.android.support:support-core-utils:26.1.0] C:\Users\Roby\.gradle\caches\transforms-1\files-1.1\support-core-utils-26.1.0.aar\f6e04846a9ec1945d113b11b03f09e12\AndroidManifest.xml:25:5-29:19
MERGED from [com.android.support:support-core-utils:26.1.0] C:\Users\Roby\.gradle\caches\transforms-1\files-1.1\support-core-utils-26.1.0.aar\f6e04846a9ec1945d113b11b03f09e12\AndroidManifest.xml:25:5-29:19
MERGED from [com.android.support:support-core-ui:26.1.0] C:\Users\Roby\.gradle\caches\transforms-1\files-1.1\support-core-ui-26.1.0.aar\c6dbd1233474cae772a2456a1b615833\AndroidManifest.xml:25:5-29:19
MERGED from [com.android.support:support-core-ui:26.1.0] C:\Users\Roby\.gradle\caches\transforms-1\files-1.1\support-core-ui-26.1.0.aar\c6dbd1233474cae772a2456a1b615833\AndroidManifest.xml:25:5-29:19
MERGED from [com.android.support:support-compat:26.1.0] C:\Users\Roby\.gradle\caches\transforms-1\files-1.1\support-compat-26.1.0.aar\19f6df460276246ab5c30fffb86816e4\AndroidManifest.xml:25:5-29:19
MERGED from [com.android.support:support-compat:26.1.0] C:\Users\Roby\.gradle\caches\transforms-1\files-1.1\support-compat-26.1.0.aar\19f6df460276246ab5c30fffb86816e4\AndroidManifest.xml:25:5-29:19
MERGED from [android.arch.lifecycle:runtime:1.0.0] C:\Users\Roby\.gradle\caches\transforms-1\files-1.1\runtime-1.0.0.aar\4e72eb475b907a9445bf3e167b757815\AndroidManifest.xml:24:5-28:19
MERGED from [android.arch.lifecycle:runtime:1.0.0] C:\Users\Roby\.gradle\caches\transforms-1\files-1.1\runtime-1.0.0.aar\4e72eb475b907a9445bf3e167b757815\AndroidManifest.xml:24:5-28:19
	android:supportsRtl
		ADDED from C:\Users\Roby\Desktop\masinuta\Mobile Application\app\src\main\AndroidManifest.xml:10:9-35
	android:label
		ADDED from C:\Users\Roby\Desktop\masinuta\Mobile Application\app\src\main\AndroidManifest.xml:8:9-41
	android:roundIcon
		ADDED from C:\Users\Roby\Desktop\masinuta\Mobile Application\app\src\main\AndroidManifest.xml:9:9-54
	android:icon
		ADDED from C:\Users\Roby\Desktop\masinuta\Mobile Application\app\src\main\AndroidManifest.xml:7:9-43
	android:allowBackup
		ADDED from C:\Users\Roby\Desktop\masinuta\Mobile Application\app\src\main\AndroidManifest.xml:6:9-35
	android:theme
		ADDED from C:\Users\Roby\Desktop\masinuta\Mobile Application\app\src\main\AndroidManifest.xml:11:9-40
activity#team_prajiitzii.androidapplication.MainActivity
ADDED from C:\Users\Roby\Desktop\masinuta\Mobile Application\app\src\main\AndroidManifest.xml:12:9-18:20
	android:name
		ADDED from C:\Users\Roby\Desktop\masinuta\Mobile Application\app\src\main\AndroidManifest.xml:12:19-47
intent-filter#android.intent.action.MAIN+android.intent.category.LAUNCHER
ADDED from C:\Users\Roby\Desktop\masinuta\Mobile Application\app\src\main\AndroidManifest.xml:13:13-17:29
action#android.intent.action.MAIN
ADDED from C:\Users\Roby\Desktop\masinuta\Mobile Application\app\src\main\AndroidManifest.xml:14:17-69
	android:name
		ADDED from C:\Users\Roby\Desktop\masinuta\Mobile Application\app\src\main\AndroidManifest.xml:14:25-66
category#android.intent.category.LAUNCHER
ADDED from C:\Users\Roby\Desktop\masinuta\Mobile Application\app\src\main\AndroidManifest.xml:16:17-77
	android:name
		ADDED from C:\Users\Roby\Desktop\masinuta\Mobile Application\app\src\main\AndroidManifest.xml:16:27-74
uses-sdk
INJECTED from C:\Users\Roby\Desktop\masinuta\Mobile Application\app\src\main\AndroidManifest.xml reason: use-sdk injection requested
INJECTED from C:\Users\Roby\Desktop\masinuta\Mobile Application\app\src\main\AndroidManifest.xml
INJECTED from C:\Users\Roby\Desktop\masinuta\Mobile Application\app\src\main\AndroidManifest.xml
MERGED from [com.android.support:appcompat-v7:26.1.0] C:\Users\Roby\.gradle\caches\transforms-1\files-1.1\appcompat-v7-26.1.0.aar\2c26a190609832e854cf9a066711d61d\AndroidManifest.xml:21:5-23:78
MERGED from [com.android.support:appcompat-v7:26.1.0] C:\Users\Roby\.gradle\caches\transforms-1\files-1.1\appcompat-v7-26.1.0.aar\2c26a190609832e854cf9a066711d61d\AndroidManifest.xml:21:5-23:78
MERGED from [com.android.support.constraint:constraint-layout:1.0.2] C:\Users\Roby\.gradle\caches\transforms-1\files-1.1\constraint-layout-1.0.2.aar\f11daf9add00108189dc3e6473f5cce9\AndroidManifest.xml:5:5-7:41
MERGED from [com.android.support.constraint:constraint-layout:1.0.2] C:\Users\Roby\.gradle\caches\transforms-1\files-1.1\constraint-layout-1.0.2.aar\f11daf9add00108189dc3e6473f5cce9\AndroidManifest.xml:5:5-7:41
MERGED from [com.android.support:animated-vector-drawable:26.1.0] C:\Users\Roby\.gradle\caches\transforms-1\files-1.1\animated-vector-drawable-26.1.0.aar\eb5ad295e48e9d63c7dcafba749b973b\AndroidManifest.xml:20:5-44
MERGED from [com.android.support:animated-vector-drawable:26.1.0] C:\Users\Roby\.gradle\caches\transforms-1\files-1.1\animated-vector-drawable-26.1.0.aar\eb5ad295e48e9d63c7dcafba749b973b\AndroidManifest.xml:20:5-44
MERGED from [com.android.support:support-vector-drawable:26.1.0] C:\Users\Roby\.gradle\caches\transforms-1\files-1.1\support-vector-drawable-26.1.0.aar\0e6acc08ff05861e97abed967676be58\AndroidManifest.xml:20:5-44
MERGED from [com.android.support:support-vector-drawable:26.1.0] C:\Users\Roby\.gradle\caches\transforms-1\files-1.1\support-vector-drawable-26.1.0.aar\0e6acc08ff05861e97abed967676be58\AndroidManifest.xml:20:5-44
MERGED from [com.android.support:support-v4:26.1.0] C:\Users\Roby\.gradle\caches\transforms-1\files-1.1\support-v4-26.1.0.aar\b17f8011e97a900f63dd8cfbd10e70a2\AndroidManifest.xml:21:5-23:54
MERGED from [com.android.support:support-v4:26.1.0] C:\Users\Roby\.gradle\caches\transforms-1\files-1.1\support-v4-26.1.0.aar\b17f8011e97a900f63dd8cfbd10e70a2\AndroidManifest.xml:21:5-23:54
MERGED from [com.android.support:support-media-compat:26.1.0] C:\Users\Roby\.gradle\caches\transforms-1\files-1.1\support-media-compat-26.1.0.aar\027a65185f1e006a0c015640615e06eb\AndroidManifest.xml:21:5-23:63
MERGED from [com.android.support:support-media-compat:26.1.0] C:\Users\Roby\.gradle\caches\transforms-1\files-1.1\support-media-compat-26.1.0.aar\027a65185f1e006a0c015640615e06eb\AndroidManifest.xml:21:5-23:63
MERGED from [com.android.support:support-fragment:26.1.0] C:\Users\Roby\.gradle\caches\transforms-1\files-1.1\support-fragment-26.1.0.aar\df432d39b71a59ae1c3c3f10bde88417\AndroidManifest.xml:21:5-23:60
MERGED from [com.android.support:support-fragment:26.1.0] C:\Users\Roby\.gradle\caches\transforms-1\files-1.1\support-fragment-26.1.0.aar\df432d39b71a59ae1c3c3f10bde88417\AndroidManifest.xml:21:5-23:60
MERGED from [com.android.support:support-core-utils:26.1.0] C:\Users\Roby\.gradle\caches\transforms-1\files-1.1\support-core-utils-26.1.0.aar\f6e04846a9ec1945d113b11b03f09e12\AndroidManifest.xml:21:5-23:61
MERGED from [com.android.support:support-core-utils:26.1.0] C:\Users\Roby\.gradle\caches\transforms-1\files-1.1\support-core-utils-26.1.0.aar\f6e04846a9ec1945d113b11b03f09e12\AndroidManifest.xml:21:5-23:61
MERGED from [com.android.support:support-core-ui:26.1.0] C:\Users\Roby\.gradle\caches\transforms-1\files-1.1\support-core-ui-26.1.0.aar\c6dbd1233474cae772a2456a1b615833\AndroidManifest.xml:21:5-23:58
MERGED from [com.android.support:support-core-ui:26.1.0] C:\Users\Roby\.gradle\caches\transforms-1\files-1.1\support-core-ui-26.1.0.aar\c6dbd1233474cae772a2456a1b615833\AndroidManifest.xml:21:5-23:58
MERGED from [com.android.support:support-compat:26.1.0] C:\Users\Roby\.gradle\caches\transforms-1\files-1.1\support-compat-26.1.0.aar\19f6df460276246ab5c30fffb86816e4\AndroidManifest.xml:21:5-23:58
MERGED from [com.android.support:support-compat:26.1.0] C:\Users\Roby\.gradle\caches\transforms-1\files-1.1\support-compat-26.1.0.aar\19f6df460276246ab5c30fffb86816e4\AndroidManifest.xml:21:5-23:58
MERGED from [android.arch.lifecycle:runtime:1.0.0] C:\Users\Roby\.gradle\caches\transforms-1\files-1.1\runtime-1.0.0.aar\4e72eb475b907a9445bf3e167b757815\AndroidManifest.xml:20:5-22:41
MERGED from [android.arch.lifecycle:runtime:1.0.0] C:\Users\Roby\.gradle\caches\transforms-1\files-1.1\runtime-1.0.0.aar\4e72eb475b907a9445bf3e167b757815\AndroidManifest.xml:20:5-22:41
INJECTED from C:\Users\Roby\Desktop\masinuta\Mobile Application\app\src\main\AndroidManifest.xml
INJECTED from C:\Users\Roby\Desktop\masinuta\Mobile Application\app\src\main\AndroidManifest.xml
	tools:overrideLibrary
		ADDED from [com.android.support:appcompat-v7:26.1.0] C:\Users\Roby\.gradle\caches\transforms-1\files-1.1\appcompat-v7-26.1.0.aar\2c26a190609832e854cf9a066711d61d\AndroidManifest.xml:23:9-75
	android:targetSdkVersion
		INJECTED from C:\Users\Roby\Desktop\masinuta\Mobile Application\app\src\main\AndroidManifest.xml
		ADDED from C:\Users\Roby\Desktop\masinuta\Mobile Application\app\src\main\AndroidManifest.xml
		INJECTED from C:\Users\Roby\Desktop\masinuta\Mobile Application\app\src\main\AndroidManifest.xml
	android:minSdkVersion
		INJECTED from C:\Users\Roby\Desktop\masinuta\Mobile Application\app\src\main\AndroidManifest.xml
		ADDED from C:\Users\Roby\Desktop\masinuta\Mobile Application\app\src\main\AndroidManifest.xml
		INJECTED from C:\Users\Roby\Desktop\masinuta\Mobile Application\app\src\main\AndroidManifest.xml
meta-data#android.support.VERSION
ADDED from [com.android.support:appcompat-v7:26.1.0] C:\Users\Roby\.gradle\caches\transforms-1\files-1.1\appcompat-v7-26.1.0.aar\2c26a190609832e854cf9a066711d61d\AndroidManifest.xml:26:9-28:38
MERGED from [com.android.support:animated-vector-drawable:26.1.0] C:\Users\Roby\.gradle\caches\transforms-1\files-1.1\animated-vector-drawable-26.1.0.aar\eb5ad295e48e9d63c7dcafba749b973b\AndroidManifest.xml:23:9-25:38
MERGED from [com.android.support:animated-vector-drawable:26.1.0] C:\Users\Roby\.gradle\caches\transforms-1\files-1.1\animated-vector-drawable-26.1.0.aar\eb5ad295e48e9d63c7dcafba749b973b\AndroidManifest.xml:23:9-25:38
MERGED from [com.android.support:support-vector-drawable:26.1.0] C:\Users\Roby\.gradle\caches\transforms-1\files-1.1\support-vector-drawable-26.1.0.aar\0e6acc08ff05861e97abed967676be58\AndroidManifest.xml:23:9-25:38
MERGED from [com.android.support:support-vector-drawable:26.1.0] C:\Users\Roby\.gradle\caches\transforms-1\files-1.1\support-vector-drawable-26.1.0.aar\0e6acc08ff05861e97abed967676be58\AndroidManifest.xml:23:9-25:38
MERGED from [com.android.support:support-v4:26.1.0] C:\Users\Roby\.gradle\caches\transforms-1\files-1.1\support-v4-26.1.0.aar\b17f8011e97a900f63dd8cfbd10e70a2\AndroidManifest.xml:26:9-28:38
MERGED from [com.android.support:support-v4:26.1.0] C:\Users\Roby\.gradle\caches\transforms-1\files-1.1\support-v4-26.1.0.aar\b17f8011e97a900f63dd8cfbd10e70a2\AndroidManifest.xml:26:9-28:38
MERGED from [com.android.support:support-media-compat:26.1.0] C:\Users\Roby\.gradle\caches\transforms-1\files-1.1\support-media-compat-26.1.0.aar\027a65185f1e006a0c015640615e06eb\AndroidManifest.xml:26:9-28:38
MERGED from [com.android.support:support-media-compat:26.1.0] C:\Users\Roby\.gradle\caches\transforms-1\files-1.1\support-media-compat-26.1.0.aar\027a65185f1e006a0c015640615e06eb\AndroidManifest.xml:26:9-28:38
MERGED from [com.android.support:support-fragment:26.1.0] C:\Users\Roby\.gradle\caches\transforms-1\files-1.1\support-fragment-26.1.0.aar\df432d39b71a59ae1c3c3f10bde88417\AndroidManifest.xml:26:9-28:38
MERGED from [com.android.support:support-fragment:26.1.0] C:\Users\Roby\.gradle\caches\transforms-1\files-1.1\support-fragment-26.1.0.aar\df432d39b71a59ae1c3c3f10bde88417\AndroidManifest.xml:26:9-28:38
MERGED from [com.android.support:support-core-utils:26.1.0] C:\Users\Roby\.gradle\caches\transforms-1\files-1.1\support-core-utils-26.1.0.aar\f6e04846a9ec1945d113b11b03f09e12\AndroidManifest.xml:26:9-28:38
MERGED from [com.android.support:support-core-utils:26.1.0] C:\Users\Roby\.gradle\caches\transforms-1\files-1.1\support-core-utils-26.1.0.aar\f6e04846a9ec1945d113b11b03f09e12\AndroidManifest.xml:26:9-28:38
MERGED from [com.android.support:support-core-ui:26.1.0] C:\Users\Roby\.gradle\caches\transforms-1\files-1.1\support-core-ui-26.1.0.aar\c6dbd1233474cae772a2456a1b615833\AndroidManifest.xml:26:9-28:38
MERGED from [com.android.support:support-core-ui:26.1.0] C:\Users\Roby\.gradle\caches\transforms-1\files-1.1\support-core-ui-26.1.0.aar\c6dbd1233474cae772a2456a1b615833\AndroidManifest.xml:26:9-28:38
MERGED from [com.android.support:support-compat:26.1.0] C:\Users\Roby\.gradle\caches\transforms-1\files-1.1\support-compat-26.1.0.aar\19f6df460276246ab5c30fffb86816e4\AndroidManifest.xml:26:9-28:38
MERGED from [com.android.support:support-compat:26.1.0] C:\Users\Roby\.gradle\caches\transforms-1\files-1.1\support-compat-26.1.0.aar\19f6df460276246ab5c30fffb86816e4\AndroidManifest.xml:26:9-28:38
	android:value
		ADDED from [com.android.support:appcompat-v7:26.1.0] C:\Users\Roby\.gradle\caches\transforms-1\files-1.1\appcompat-v7-26.1.0.aar\2c26a190609832e854cf9a066711d61d\AndroidManifest.xml:28:13-35
	android:name
		ADDED from [com.android.support:appcompat-v7:26.1.0] C:\Users\Roby\.gradle\caches\transforms-1\files-1.1\appcompat-v7-26.1.0.aar\2c26a190609832e854cf9a066711d61d\AndroidManifest.xml:27:13-51
meta-data#android.arch.lifecycle.VERSION
ADDED from [android.arch.lifecycle:runtime:1.0.0] C:\Users\Roby\.gradle\caches\transforms-1\files-1.1\runtime-1.0.0.aar\4e72eb475b907a9445bf3e167b757815\AndroidManifest.xml:25:9-27:47
	android:value
		ADDED from [android.arch.lifecycle:runtime:1.0.0] C:\Users\Roby\.gradle\caches\transforms-1\files-1.1\runtime-1.0.0.aar\4e72eb475b907a9445bf3e167b757815\AndroidManifest.xml:27:13-44
	android:name
		ADDED from [android.arch.lifecycle:runtime:1.0.0] C:\Users\Roby\.gradle\caches\transforms-1\files-1.1\runtime-1.0.0.aar\4e72eb475b907a9445bf3e167b757815\AndroidManifest.xml:26:13-58
